Lab1/fsic_fpga/rtl/user/testbench/tc/xsim_2485.backup.log
#-----------------------------------------------------------
# xsim v2022.1 (64-bit)
# SW Build 3526262 on Mon Apr 18 15:47:01 MDT 2022
# IP Build 3524634 on Mon Apr 18 20:55:01 MDT 2022
# Start of session at: Wed Mar 13 00:52:58 2024
# Process ID: 2485
# Current directory: /home/ubuntu/fsic-sim/fsic_fpga/rtl/user/testbench/tc
# Command line: xsim -mode tcl -source {xsim.dir/tb_fsic_xelab/xsim_script.tcl}
# Log file: /home/ubuntu/fsic-sim/fsic_fpga/rtl/user/testbench/tc/xsim.log
# Journal file: /home/ubuntu/fsic-sim/fsic_fpga/rtl/user/testbench/tc/xsim.jou
# Running On: ubuntu2004, OS: Linux, CPU Frequency: 3193.990 MHz, CPU Physical cores: 2, Host memory: 8323 MB
#-----------------------------------------------------------
source xsim.dir/tb_fsic_xelab/xsim_script.tcl
# xsim {tb_fsic_xelab} -autoloadwcfg -tclbatch {log_wave.tcl}
Time resolution is 1 ps
open_wave_config /home/ubuntu/fsic-sim/fsic_fpga/rtl/user/testbench/tc/tb_fsic_xelab.wcfg
WARNING: Simulation object /tb_fsic/dut/U_MPRJ_IO0/vccd1 was not found in the design.
WARNING: Simulation object /tb_fsic/dut/U_MPRJ_IO0/vccd2 was not found in the design.
WARNING: Simulation object /tb_fsic/dut/U_MPRJ_IO0/vssd1 was not found in the design.
WARNING: Simulation object /tb_fsic/dut/U_MPRJ_IO0/vssd2 was not found in the design.
WARNING: Simulation object /tb_fsic/vccd1 was not found in the design.
WARNING: Simulation object /tb_fsic/vccd2 was not found in the design.
WARNING: Simulation object /tb_fsic/vssd1 was not found in the design.
WARNING: Simulation object /tb_fsic/vssd2 was not found in the design.
WARNING: Simulation object /tb_fsic/dut/AXIS_SW0/pre_rd_ptr_reg was not found in the design.
WARNING: Simulation object /tb_fsic/dut/AXIS_SW0/as_up_tvalid_reg was not found in the design.
WARNING: Simulation object /tb_fsic/dut/AXIS_SW0/as_aa_tvalid_reg was not found in the design.
WARNING: Simulation object /tb_fsic/dut/AXIS_SW0/delaynext was not found in the design.
WARNING: Simulation object /tb_fsic/dut/AXIS_SW0/pre_m_axis was not found in the design.
WARNING: Simulation object /tb_fsic/dut/AXIS_SW0/as_up_tvalid_reg was not found in the design.
WARNING: Simulation object /tb_fsic/dut/AXIS_SW0/pre_rd_ptr_reg was not found in the design.
WARNING: Simulation object /tb_fsic/dut/AXIS_SW0/as_up_tvalid_reg was not found in the design.
WARNING: Simulation object /tb_fsic/dut/AXIS_SW0/as_aa_tvalid_reg was not found in the design.
WARNING: Simulation object /tb_fsic/dut/AXIS_SW0/delaynext was not found in the design.
WARNING: Simulation object /tb_fsic/dut/AXIS_SW0/pre_m_axis was not found in the design.
source log_wave.tcl
## log_wave -quiet -verbose -recursive *
## run all
                  40=> soc POR Assert
                  40=> fpga POR Assert
                  40=> fpga reset Assert
                  80=> soc POR De-Assert
                  80=> fpga POR De-Assert
                 120=> fpga reset De-Assert
                 185=> fpga_as_to_is_init done
                 225=> fpga_cfg_write : fpga_axi_awaddr=0000, fpga_axi_awvalid=1, fpga_axi_awready=1, fpga_axi_wdata=00000001, axi_wstrb=1, fpga_axi_wvalid=1, fpga_axi_wready=1
                 425=> soc_is_cfg_write : wbs_adr=30003000, wbs_sel=0001, wbs_wdata=00000001
                 425=> soc rxen_ctl=1
                 425=> fpga rxen_ctl=1
                 865=> fpga_cfg_write : fpga_axi_awaddr=0000, fpga_axi_awvalid=1, fpga_axi_awready=1, fpga_axi_wdata=00000003, axi_wstrb=1, fpga_axi_wvalid=1, fpga_axi_wready=1
                1025=> soc_is_cfg_write : wbs_adr=30003000, wbs_sel=0001, wbs_wdata=00000003
                1065=> finish reset
                1265=> soc_cfg_write : wbs_adr=30005000, wbs_sel=0001, wbs_wdata=00000001
=============================================================================================
                1265=> Start test1
                1545=> soc_cfg_write : wbs_adr=30000010, wbs_sel=0001, wbs_wdata=00000040
                1545=> finish tap length
                1825=> soc_cfg_write : wbs_adr=30000020, wbs_sel=0001, wbs_wdata=00000000
                2105=> soc_cfg_write : wbs_adr=30000024, wbs_sel=0001, wbs_wdata=fffffff6
                2385=> soc_cfg_write : wbs_adr=30000028, wbs_sel=0001, wbs_wdata=fffffff7
                2665=> soc_cfg_write : wbs_adr=3000002c, wbs_sel=0001, wbs_wdata=00000017
                2945=> soc_cfg_write : wbs_adr=30000030, wbs_sel=0001, wbs_wdata=00000038
                3225=> soc_cfg_write : wbs_adr=30000034, wbs_sel=0001, wbs_wdata=0000003f
                3505=> soc_cfg_write : wbs_adr=30000038, wbs_sel=0001, wbs_wdata=00000038
                3785=> soc_cfg_write : wbs_adr=3000003c, wbs_sel=0001, wbs_wdata=00000017
                4065=> soc_cfg_write : wbs_adr=30000040, wbs_sel=0001, wbs_wdata=fffffff7
                4345=> soc_cfg_write : wbs_adr=30000044, wbs_sel=0001, wbs_wdata=fffffff6
                4625=> soc_cfg_write : wbs_adr=30000048, wbs_sel=0001, wbs_wdata=00000000
                4905=> soc_cfg_write : wbs_adr=30000000, wbs_sel=0001, wbs_wdata=00000001
                5225=> soc_cfg_write : wbs_adr=30002000, wbs_sel=1111, wbs_wdata=a5a5a5a5
                5705=> get soc_to_fpga_mailbox_write_addr_captured be : soc_to_fpga_mailbox_write_addr_captured =xxxxxxxx, fpga_is_as_tdata=f0002000
                5705=> get soc_to_fpga_mailbox_write_addr_captured af : soc_to_fpga_mailbox_write_addr_captured =f0002000, fpga_is_as_tdata=f0002000
                5945=> get soc_to_fpga_mailbox_write_data_captured be : soc_to_fpga_mailbox_write_data_captured =xxxxxxxx, fpga_is_as_tdata=a5a5a5a5
                5945=> get soc_to_fpga_mailbox_write_data_captured af : soc_to_fpga_mailbox_write_data_captured =a5a5a5a5, fpga_is_as_tdata=a5a5a5a5
                5945=> soc_to_fpga_mailbox_write_data_captured : send soc_to_fpga_mailbox_write_event
                5945=> test_1 aa_mailbox_soc_cfg : got soc_to_fpga_mailbox_write_event
                5945=> test_1 aa_mailbox_soc_cfg [PASS] soc_to_fpga_mailbox_write_data_expect_value=a5a5a5a5, soc_to_fpga_mailbox_write_data_captured=a5a5a5a5
-----------------
                5985=> fpga_axis_req send data, fpga_as_is_tupsb = 00000, fpga_as_is_tstrb = 0000, fpga_as_is_tkeep = 0000, fpga_as_is_tlast = 0, fpga_as_is_tdata = 00000000
                6025=> fpga_axis_req send data, fpga_as_is_tupsb = 00000, fpga_as_is_tstrb = 0000, fpga_as_is_tkeep = 0000, fpga_as_is_tlast = 0, fpga_as_is_tdata = 00000001
                6065=> fpga_axis_req send data, fpga_as_is_tupsb = 00000, fpga_as_is_tstrb = 0000, fpga_as_is_tkeep = 0000, fpga_as_is_tlast = 0, fpga_as_is_tdata = 00000002
                6105=> fpga_axis_req send data, fpga_as_is_tupsb = 00000, fpga_as_is_tstrb = 0000, fpga_as_is_tkeep = 0000, fpga_as_is_tlast = 0, fpga_as_is_tdata = 00000003
                6145=> fpga_axis_req send data, fpga_as_is_tupsb = 00000, fpga_as_is_tstrb = 0000, fpga_as_is_tkeep = 0000, fpga_as_is_tlast = 0, fpga_as_is_tdata = 00000004
                6185=> fpga_axis_req send data, fpga_as_is_tupsb = 00000, fpga_as_is_tstrb = 0000, fpga_as_is_tkeep = 0000, fpga_as_is_tlast = 0, fpga_as_is_tdata = 00000005
                6225=> fpga_axis_req send data, fpga_as_is_tupsb = 00000, fpga_as_is_tstrb = 0000, fpga_as_is_tkeep = 0000, fpga_as_is_tlast = 0, fpga_as_is_tdata = 00000006
                6265=> fpga_axis_req send data, fpga_as_is_tupsb = 00000, fpga_as_is_tstrb = 0000, fpga_as_is_tkeep = 0000, fpga_as_is_tlast = 0, fpga_as_is_tdata = 00000007
                6305=> fpga_axis_req send data, fpga_as_is_tupsb = 00000, fpga_as_is_tstrb = 0000, fpga_as_is_tkeep = 0000, fpga_as_is_tlast = 0, fpga_as_is_tdata = 00000008
                6345=> fpga_axis_req send data, fpga_as_is_tupsb = 00000, fpga_as_is_tstrb = 0000, fpga_as_is_tkeep = 0000, fpga_as_is_tlast = 0, fpga_as_is_tdata = 00000009
                6385=> fpga_axis_req send data, fpga_as_is_tupsb = 00000, fpga_as_is_tstrb = 0000, fpga_as_is_tkeep = 0000, fpga_as_is_tlast = 0, fpga_as_is_tdata = 0000000a
                6425=> fpga_axis_req send data, fpga_as_is_tupsb = 00000, fpga_as_is_tstrb = 0000, fpga_as_is_tkeep = 0000, fpga_as_is_tlast = 0, fpga_as_is_tdata = 0000000b
                6465=> fpga_axis_req send data, fpga_as_is_tupsb = 00000, fpga_as_is_tstrb = 0000, fpga_as_is_tkeep = 0000, fpga_as_is_tlast = 0, fpga_as_is_tdata = 0000000c
                6505=> fpga_axis_req send data, fpga_as_is_tupsb = 00000, fpga_as_is_tstrb = 0000, fpga_as_is_tkeep = 0000, fpga_as_is_tlast = 0, fpga_as_is_tdata = 0000000d
                6545=> fpga_axis_req send data, fpga_as_is_tupsb = 00000, fpga_as_is_tstrb = 0000, fpga_as_is_tkeep = 0000, fpga_as_is_tlast = 0, fpga_as_is_tdata = 0000000e
                6585=> fpga_axis_req send data, fpga_as_is_tupsb = 00000, fpga_as_is_tstrb = 0000, fpga_as_is_tkeep = 0000, fpga_as_is_tlast = 0, fpga_as_is_tdata = 0000000f
                6625=> fpga_axis_req send data, fpga_as_is_tupsb = 00000, fpga_as_is_tstrb = 0000, fpga_as_is_tkeep = 0000, fpga_as_is_tlast = 0, fpga_as_is_tdata = 00000010
                6905=> get soc_to_fpga_axis be : soc_to_fpga_axis_captured_count=         0,  soc_to_fpga_axis_captured[         0] =xxxxxxxxxxxx, fpga_is_as_tupsb=00, fpga_is_as_tstrb=0, fpga_is_as_tkeep=0 , fpga_is_as_tlast=0, fpga_is_as_tdata=00000000
                6905=> get soc_to_fpga_axis af : soc_to_fpga_axis_captured_count=         0,  soc_to_fpga_axis_captured[         0] =000000000000, fpga_is_as_tupsb=00, fpga_is_as_tstrb=0, fpga_is_as_tkeep=0 , fpga_is_as_tlast=0, fpga_is_as_tdata=00000000
                7465=> get soc_to_fpga_axis be : soc_to_fpga_axis_captured_count=         1,  soc_to_fpga_axis_captured[         1] =xxxxxxxxxxxx, fpga_is_as_tupsb=00, fpga_is_as_tstrb=0, fpga_is_as_tkeep=0 , fpga_is_as_tlast=0, fpga_is_as_tdata=00000000
                7465=> get soc_to_fpga_axis af : soc_to_fpga_axis_captured_count=         1,  soc_to_fpga_axis_captured[         1] =000000000000, fpga_is_as_tupsb=00, fpga_is_as_tstrb=0, fpga_is_as_tkeep=0 , fpga_is_as_tlast=0, fpga_is_as_tdata=00000000
                8025=> get soc_to_fpga_axis be : soc_to_fpga_axis_captured_count=         2,  soc_to_fpga_axis_captured[         2] =xxxxxxxxxxxx, fpga_is_as_tupsb=00, fpga_is_as_tstrb=0, fpga_is_as_tkeep=0 , fpga_is_as_tlast=0, fpga_is_as_tdata=fffffff6
                8025=> get soc_to_fpga_axis af : soc_to_fpga_axis_captured_count=         2,  soc_to_fpga_axis_captured[         2] =0000fffffff6, fpga_is_as_tupsb=00, fpga_is_as_tstrb=0, fpga_is_as_tkeep=0 , fpga_is_as_tlast=0, fpga_is_as_tdata=fffffff6
                8585=> get soc_to_fpga_axis be : soc_to_fpga_axis_captured_count=         3,  soc_to_fpga_axis_captured[         3] =xxxxxxxxxxxx, fpga_is_as_tupsb=00, fpga_is_as_tstrb=0, fpga_is_as_tkeep=0 , fpga_is_as_tlast=0, fpga_is_as_tdata=ffffffe3
                8585=> get soc_to_fpga_axis af : soc_to_fpga_axis_captured_count=         3,  soc_to_fpga_axis_captured[         3] =0000ffffffe3, fpga_is_as_tupsb=00, fpga_is_as_tstrb=0, fpga_is_as_tkeep=0 , fpga_is_as_tlast=0, fpga_is_as_tdata=ffffffe3
                9145=> get soc_to_fpga_axis be : soc_to_fpga_axis_captured_count=         4,  soc_to_fpga_axis_captured[         4] =xxxxxxxxxxxx, fpga_is_as_tupsb=00, fpga_is_as_tstrb=0, fpga_is_as_tkeep=0 , fpga_is_as_tlast=0, fpga_is_as_tdata=ffffffe7
                9145=> get soc_to_fpga_axis af : soc_to_fpga_axis_captured_count=         4,  soc_to_fpga_axis_captured[         4] =0000ffffffe7, fpga_is_as_tupsb=00, fpga_is_as_tstrb=0, fpga_is_as_tkeep=0 , fpga_is_as_tlast=0, fpga_is_as_tdata=ffffffe7
                9705=> get soc_to_fpga_axis be : soc_to_fpga_axis_captured_count=         5,  soc_to_fpga_axis_captured[         5] =xxxxxxxxxxxx, fpga_is_as_tupsb=00, fpga_is_as_tstrb=0, fpga_is_as_tkeep=0 , fpga_is_as_tlast=0, fpga_is_as_tdata=00000023
                9705=> get soc_to_fpga_axis af : soc_to_fpga_axis_captured_count=         5,  soc_to_fpga_axis_captured[         5] =000000000023, fpga_is_as_tupsb=00, fpga_is_as_tstrb=0, fpga_is_as_tkeep=0 , fpga_is_as_tlast=0, fpga_is_as_tdata=00000023
               10265=> get soc_to_fpga_axis be : soc_to_fpga_axis_captured_count=         6,  soc_to_fpga_axis_captured[         6] =xxxxxxxxxxxx, fpga_is_as_tupsb=00, fpga_is_as_tstrb=0, fpga_is_as_tkeep=0 , fpga_is_as_tlast=0, fpga_is_as_tdata=0000009e
               10265=> get soc_to_fpga_axis af : soc_to_fpga_axis_captured_count=         6,  soc_to_fpga_axis_captured[         6] =00000000009e, fpga_is_as_tupsb=00, fpga_is_as_tstrb=0, fpga_is_as_tkeep=0 , fpga_is_as_tlast=0, fpga_is_as_tdata=0000009e
               10825=> get soc_to_fpga_axis be : soc_to_fpga_axis_captured_count=         7,  soc_to_fpga_axis_captured[         7] =xxxxxxxxxxxx, fpga_is_as_tupsb=00, fpga_is_as_tstrb=0, fpga_is_as_tkeep=0 , fpga_is_as_tlast=0, fpga_is_as_tdata=00000151
               10825=> get soc_to_fpga_axis af : soc_to_fpga_axis_captured_count=         7,  soc_to_fpga_axis_captured[         7] =000000000151, fpga_is_as_tupsb=00, fpga_is_as_tstrb=0, fpga_is_as_tkeep=0 , fpga_is_as_tlast=0, fpga_is_as_tdata=00000151
               11385=> get soc_to_fpga_axis be : soc_to_fpga_axis_captured_count=         8,  soc_to_fpga_axis_captured[         8] =xxxxxxxxxxxx, fpga_is_as_tupsb=00, fpga_is_as_tstrb=0, fpga_is_as_tkeep=0 , fpga_is_as_tlast=0, fpga_is_as_tdata=0000021b
               11385=> get soc_to_fpga_axis af : soc_to_fpga_axis_captured_count=         8,  soc_to_fpga_axis_captured[         8] =00000000021b, fpga_is_as_tupsb=00, fpga_is_as_tstrb=0, fpga_is_as_tkeep=0 , fpga_is_as_tlast=0, fpga_is_as_tdata=0000021b
               11505=> fpga_axis_req send data, fpga_as_is_tupsb = 00000, fpga_as_is_tstrb = 0000, fpga_as_is_tkeep = 0000, fpga_as_is_tlast = 0, fpga_as_is_tdata = 00000011
               11545=> fpga_axis_req send data, fpga_as_is_tupsb = 00000, fpga_as_is_tstrb = 0000, fpga_as_is_tkeep = 0000, fpga_as_is_tlast = 0, fpga_as_is_tdata = 00000012
               11585=> fpga_axis_req send data, fpga_as_is_tupsb = 00000, fpga_as_is_tstrb = 0000, fpga_as_is_tkeep = 0000, fpga_as_is_tlast = 0, fpga_as_is_tdata = 00000013
               11625=> fpga_axis_req send data, fpga_as_is_tupsb = 00000, fpga_as_is_tstrb = 0000, fpga_as_is_tkeep = 0000, fpga_as_is_tlast = 0, fpga_as_is_tdata = 00000014
               11665=> fpga_axis_req send data, fpga_as_is_tupsb = 00000, fpga_as_is_tstrb = 0000, fpga_as_is_tkeep = 0000, fpga_as_is_tlast = 0, fpga_as_is_tdata = 00000015
               11705=> fpga_axis_req send data, fpga_as_is_tupsb = 00000, fpga_as_is_tstrb = 0000, fpga_as_is_tkeep = 0000, fpga_as_is_tlast = 0, fpga_as_is_tdata = 00000016
               11745=> fpga_axis_req send data, fpga_as_is_tupsb = 00000, fpga_as_is_tstrb = 0000, fpga_as_is_tkeep = 0000, fpga_as_is_tlast = 0, fpga_as_is_tdata = 00000017
               11785=> fpga_axis_req send data, fpga_as_is_tupsb = 00000, fpga_as_is_tstrb = 0000, fpga_as_is_tkeep = 0000, fpga_as_is_tlast = 0, fpga_as_is_tdata = 00000018
               11825=> fpga_axis_req send data, fpga_as_is_tupsb = 00000, fpga_as_is_tstrb = 0000, fpga_as_is_tkeep = 0000, fpga_as_is_tlast = 0, fpga_as_is_tdata = 00000019
               11945=> get soc_to_fpga_axis be : soc_to_fpga_axis_captured_count=         9,  soc_to_fpga_axis_captured[         9] =xxxxxxxxxxxx, fpga_is_as_tupsb=00, fpga_is_as_tstrb=0, fpga_is_as_tkeep=0 , fpga_is_as_tlast=0, fpga_is_as_tdata=000002dc
               11945=> get soc_to_fpga_axis af : soc_to_fpga_axis_captured_count=         9,  soc_to_fpga_axis_captured[         9] =0000000002dc, fpga_is_as_tupsb=00, fpga_is_as_tstrb=0, fpga_is_as_tkeep=0 , fpga_is_as_tlast=0, fpga_is_as_tdata=000002dc
               12505=> get soc_to_fpga_axis be : soc_to_fpga_axis_captured_count=        10,  soc_to_fpga_axis_captured[        10] =xxxxxxxxxxxx, fpga_is_as_tupsb=00, fpga_is_as_tstrb=0, fpga_is_as_tkeep=0 , fpga_is_as_tlast=0, fpga_is_as_tdata=00000393
               12505=> get soc_to_fpga_axis af : soc_to_fpga_axis_captured_count=        10,  soc_to_fpga_axis_captured[        10] =000000000393, fpga_is_as_tupsb=00, fpga_is_as_tstrb=0, fpga_is_as_tkeep=0 , fpga_is_as_tlast=0, fpga_is_as_tdata=00000393
               13065=> get soc_to_fpga_axis be : soc_to_fpga_axis_captured_count=        11,  soc_to_fpga_axis_captured[        11] =xxxxxxxxxxxx, fpga_is_as_tupsb=00, fpga_is_as_tstrb=0, fpga_is_as_tkeep=0 , fpga_is_as_tlast=0, fpga_is_as_tdata=0000044a
               13065=> get soc_to_fpga_axis af : soc_to_fpga_axis_captured_count=        11,  soc_to_fpga_axis_captured[        11] =00000000044a, fpga_is_as_tupsb=00, fpga_is_as_tstrb=0, fpga_is_as_tkeep=0 , fpga_is_as_tlast=0, fpga_is_as_tdata=0000044a
               13625=> get soc_to_fpga_axis be : soc_to_fpga_axis_captured_count=        12,  soc_to_fpga_axis_captured[        12] =xxxxxxxxxxxx, fpga_is_as_tupsb=00, fpga_is_as_tstrb=0, fpga_is_as_tkeep=0 , fpga_is_as_tlast=0, fpga_is_as_tdata=00000501
               13625=> get soc_to_fpga_axis af : soc_to_fpga_axis_captured_count=        12,  soc_to_fpga_axis_captured[        12] =000000000501, fpga_is_as_tupsb=00, fpga_is_as_tstrb=0, fpga_is_as_tkeep=0 , fpga_is_as_tlast=0, fpga_is_as_tdata=00000501
               14185=> get soc_to_fpga_axis be : soc_to_fpga_axis_captured_count=        13,  soc_to_fpga_axis_captured[        13] =xxxxxxxxxxxx, fpga_is_as_tupsb=00, fpga_is_as_tstrb=0, fpga_is_as_tkeep=0 , fpga_is_as_tlast=0, fpga_is_as_tdata=000005b8
               14185=> get soc_to_fpga_axis af : soc_to_fpga_axis_captured_count=        13,  soc_to_fpga_axis_captured[        13] =0000000005b8, fpga_is_as_tupsb=00, fpga_is_as_tstrb=0, fpga_is_as_tkeep=0 , fpga_is_as_tlast=0, fpga_is_as_tdata=000005b8
               14745=> get soc_to_fpga_axis be : soc_to_fpga_axis_captured_count=        14,  soc_to_fpga_axis_captured[        14] =xxxxxxxxxxxx, fpga_is_as_tupsb=00, fpga_is_as_tstrb=0, fpga_is_as_tkeep=0 , fpga_is_as_tlast=0, fpga_is_as_tdata=0000066f
               14745=> get soc_to_fpga_axis af : soc_to_fpga_axis_captured_count=        14,  soc_to_fpga_axis_captured[        14] =00000000066f, fpga_is_as_tupsb=00, fpga_is_as_tstrb=0, fpga_is_as_tkeep=0 , fpga_is_as_tlast=0, fpga_is_as_tdata=0000066f
               15305=> get soc_to_fpga_axis be : soc_to_fpga_axis_captured_count=        15,  soc_to_fpga_axis_captured[        15] =xxxxxxxxxxxx, fpga_is_as_tupsb=00, fpga_is_as_tstrb=0, fpga_is_as_tkeep=0 , fpga_is_as_tlast=0, fpga_is_as_tdata=00000726
               15305=> get soc_to_fpga_axis af : soc_to_fpga_axis_captured_count=        15,  soc_to_fpga_axis_captured[        15] =000000000726, fpga_is_as_tupsb=00, fpga_is_as_tstrb=0, fpga_is_as_tkeep=0 , fpga_is_as_tlast=0, fpga_is_as_tdata=00000726
               15865=> get soc_to_fpga_axis be : soc_to_fpga_axis_captured_count=        16,  soc_to_fpga_axis_captured[        16] =xxxxxxxxxxxx, fpga_is_as_tupsb=00, fpga_is_as_tstrb=0, fpga_is_as_tkeep=0 , fpga_is_as_tlast=0, fpga_is_as_tdata=000007dd
               15865=> get soc_to_fpga_axis af : soc_to_fpga_axis_captured_count=        16,  soc_to_fpga_axis_captured[        16] =0000000007dd, fpga_is_as_tupsb=00, fpga_is_as_tstrb=0, fpga_is_as_tkeep=0 , fpga_is_as_tlast=0, fpga_is_as_tdata=000007dd
               16425=> get soc_to_fpga_axis be : soc_to_fpga_axis_captured_count=        17,  soc_to_fpga_axis_captured[        17] =xxxxxxxxxxxx, fpga_is_as_tupsb=00, fpga_is_as_tstrb=0, fpga_is_as_tkeep=0 , fpga_is_as_tlast=0, fpga_is_as_tdata=00000894
               16425=> get soc_to_fpga_axis af : soc_to_fpga_axis_captured_count=        17,  soc_to_fpga_axis_captured[        17] =000000000894, fpga_is_as_tupsb=00, fpga_is_as_tstrb=0, fpga_is_as_tkeep=0 , fpga_is_as_tlast=0, fpga_is_as_tdata=00000894
               16545=> fpga_axis_req send data, fpga_as_is_tupsb = 00000, fpga_as_is_tstrb = 0000, fpga_as_is_tkeep = 0000, fpga_as_is_tlast = 0, fpga_as_is_tdata = 0000001a
               16585=> fpga_axis_req send data, fpga_as_is_tupsb = 00000, fpga_as_is_tstrb = 0000, fpga_as_is_tkeep = 0000, fpga_as_is_tlast = 0, fpga_as_is_tdata = 0000001b
               16625=> fpga_axis_req send data, fpga_as_is_tupsb = 00000, fpga_as_is_tstrb = 0000, fpga_as_is_tkeep = 0000, fpga_as_is_tlast = 0, fpga_as_is_tdata = 0000001c
               16665=> fpga_axis_req send data, fpga_as_is_tupsb = 00000, fpga_as_is_tstrb = 0000, fpga_as_is_tkeep = 0000, fpga_as_is_tlast = 0, fpga_as_is_tdata = 0000001d
               16705=> fpga_axis_req send data, fpga_as_is_tupsb = 00000, fpga_as_is_tstrb = 0000, fpga_as_is_tkeep = 0000, fpga_as_is_tlast = 0, fpga_as_is_tdata = 0000001e
               16745=> fpga_axis_req send data, fpga_as_is_tupsb = 00000, fpga_as_is_tstrb = 0000, fpga_as_is_tkeep = 0000, fpga_as_is_tlast = 0, fpga_as_is_tdata = 0000001f
               16785=> fpga_axis_req send data, fpga_as_is_tupsb = 00000, fpga_as_is_tstrb = 0000, fpga_as_is_tkeep = 0000, fpga_as_is_tlast = 0, fpga_as_is_tdata = 00000020
               16825=> fpga_axis_req send data, fpga_as_is_tupsb = 00000, fpga_as_is_tstrb = 0000, fpga_as_is_tkeep = 0000, fpga_as_is_tlast = 0, fpga_as_is_tdata = 00000021
               16865=> fpga_axis_req send data, fpga_as_is_tupsb = 00000, fpga_as_is_tstrb = 0000, fpga_as_is_tkeep = 0000, fpga_as_is_tlast = 0, fpga_as_is_tdata = 00000022
               16985=> get soc_to_fpga_axis be : soc_to_fpga_axis_captured_count=        18,  soc_to_fpga_axis_captured[        18] =xxxxxxxxxxxx, fpga_is_as_tupsb=00, fpga_is_as_tstrb=0, fpga_is_as_tkeep=0 , fpga_is_as_tlast=0, fpga_is_as_tdata=0000094b
               16985=> get soc_to_fpga_axis af : soc_to_fpga_axis_captured_count=        18,  soc_to_fpga_axis_captured[        18] =00000000094b, fpga_is_as_tupsb=00, fpga_is_as_tstrb=0, fpga_is_as_tkeep=0 , fpga_is_as_tlast=0, fpga_is_as_tdata=0000094b
               17545=> get soc_to_fpga_axis be : soc_to_fpga_axis_captured_count=        19,  soc_to_fpga_axis_captured[        19] =xxxxxxxxxxxx, fpga_is_as_tupsb=00, fpga_is_as_tstrb=0, fpga_is_as_tkeep=0 , fpga_is_as_tlast=0, fpga_is_as_tdata=00000a02
               17545=> get soc_to_fpga_axis af : soc_to_fpga_axis_captured_count=        19,  soc_to_fpga_axis_captured[        19] =000000000a02, fpga_is_as_tupsb=00, fpga_is_as_tstrb=0, fpga_is_as_tkeep=0 , fpga_is_as_tlast=0, fpga_is_as_tdata=00000a02
               18105=> get soc_to_fpga_axis be : soc_to_fpga_axis_captured_count=        20,  soc_to_fpga_axis_captured[        20] =xxxxxxxxxxxx, fpga_is_as_tupsb=00, fpga_is_as_tstrb=0, fpga_is_as_tkeep=0 , fpga_is_as_tlast=0, fpga_is_as_tdata=00000ab9
               18105=> get soc_to_fpga_axis af : soc_to_fpga_axis_captured_count=        20,  soc_to_fpga_axis_captured[        20] =000000000ab9, fpga_is_as_tupsb=00, fpga_is_as_tstrb=0, fpga_is_as_tkeep=0 , fpga_is_as_tlast=0, fpga_is_as_tdata=00000ab9
               18665=> get soc_to_fpga_axis be : soc_to_fpga_axis_captured_count=        21,  soc_to_fpga_axis_captured[        21] =xxxxxxxxxxxx, fpga_is_as_tupsb=00, fpga_is_as_tstrb=0, fpga_is_as_tkeep=0 , fpga_is_as_tlast=0, fpga_is_as_tdata=00000b70
               18665=> get soc_to_fpga_axis af : soc_to_fpga_axis_captured_count=        21,  soc_to_fpga_axis_captured[        21] =000000000b70, fpga_is_as_tupsb=00, fpga_is_as_tstrb=0, fpga_is_as_tkeep=0 , fpga_is_as_tlast=0, fpga_is_as_tdata=00000b70
               19225=> get soc_to_fpga_axis be : soc_to_fpga_axis_captured_count=        22,  soc_to_fpga_axis_captured[        22] =xxxxxxxxxxxx, fpga_is_as_tupsb=00, fpga_is_as_tstrb=0, fpga_is_as_tkeep=0 , fpga_is_as_tlast=0, fpga_is_as_tdata=00000c27
               19225=> get soc_to_fpga_axis af : soc_to_fpga_axis_captured_count=        22,  soc_to_fpga_axis_captured[        22] =000000000c27, fpga_is_as_tupsb=00, fpga_is_as_tstrb=0, fpga_is_as_tkeep=0 , fpga_is_as_tlast=0, fpga_is_as_tdata=00000c27
               19785=> get soc_to_fpga_axis be : soc_to_fpga_axis_captured_count=        23,  soc_to_fpga_axis_captured[        23] =xxxxxxxxxxxx, fpga_is_as_tupsb=00, fpga_is_as_tstrb=0, fpga_is_as_tkeep=0 , fpga_is_as_tlast=0, fpga_is_as_tdata=00000cde
               19785=> get soc_to_fpga_axis af : soc_to_fpga_axis_captured_count=        23,  soc_to_fpga_axis_captured[        23] =000000000cde, fpga_is_as_tupsb=00, fpga_is_as_tstrb=0, fpga_is_as_tkeep=0 , fpga_is_as_tlast=0, fpga_is_as_tdata=00000cde
               20345=> get soc_to_fpga_axis be : soc_to_fpga_axis_captured_count=        24,  soc_to_fpga_axis_captured[        24] =xxxxxxxxxxxx, fpga_is_as_tupsb=00, fpga_is_as_tstrb=0, fpga_is_as_tkeep=0 , fpga_is_as_tlast=0, fpga_is_as_tdata=00000d95
               20345=> get soc_to_fpga_axis af : soc_to_fpga_axis_captured_count=        24,  soc_to_fpga_axis_captured[        24] =000000000d95, fpga_is_as_tupsb=00, fpga_is_as_tstrb=0, fpga_is_as_tkeep=0 , fpga_is_as_tlast=0, fpga_is_as_tdata=00000d95
               20905=> get soc_to_fpga_axis be : soc_to_fpga_axis_captured_count=        25,  soc_to_fpga_axis_captured[        25] =xxxxxxxxxxxx, fpga_is_as_tupsb=00, fpga_is_as_tstrb=0, fpga_is_as_tkeep=0 , fpga_is_as_tlast=0, fpga_is_as_tdata=00000e4c
               20905=> get soc_to_fpga_axis af : soc_to_fpga_axis_captured_count=        25,  soc_to_fpga_axis_captured[        25] =000000000e4c, fpga_is_as_tupsb=00, fpga_is_as_tstrb=0, fpga_is_as_tkeep=0 , fpga_is_as_tlast=0, fpga_is_as_tdata=00000e4c
               21465=> get soc_to_fpga_axis be : soc_to_fpga_axis_captured_count=        26,  soc_to_fpga_axis_captured[        26] =xxxxxxxxxxxx, fpga_is_as_tupsb=00, fpga_is_as_tstrb=0, fpga_is_as_tkeep=0 , fpga_is_as_tlast=0, fpga_is_as_tdata=00000f03
               21465=> get soc_to_fpga_axis af : soc_to_fpga_axis_captured_count=        26,  soc_to_fpga_axis_captured[        26] =000000000f03, fpga_is_as_tupsb=00, fpga_is_as_tstrb=0, fpga_is_as_tkeep=0 , fpga_is_as_tlast=0, fpga_is_as_tdata=00000f03
               21585=> fpga_axis_req send data, fpga_as_is_tupsb = 00000, fpga_as_is_tstrb = 0000, fpga_as_is_tkeep = 0000, fpga_as_is_tlast = 0, fpga_as_is_tdata = 00000023
               21625=> fpga_axis_req send data, fpga_as_is_tupsb = 00000, fpga_as_is_tstrb = 0000, fpga_as_is_tkeep = 0000, fpga_as_is_tlast = 0, fpga_as_is_tdata = 00000024
               21665=> fpga_axis_req send data, fpga_as_is_tupsb = 00000, fpga_as_is_tstrb = 0000, fpga_as_is_tkeep = 0000, fpga_as_is_tlast = 0, fpga_as_is_tdata = 00000025
               21705=> fpga_axis_req send data, fpga_as_is_tupsb = 00000, fpga_as_is_tstrb = 0000, fpga_as_is_tkeep = 0000, fpga_as_is_tlast = 0, fpga_as_is_tdata = 00000026
               21745=> fpga_axis_req send data, fpga_as_is_tupsb = 00000, fpga_as_is_tstrb = 0000, fpga_as_is_tkeep = 0000, fpga_as_is_tlast = 0, fpga_as_is_tdata = 00000027
